{
  "href": "https://api.ebay.com/buy/browse/v1/item_summary/search?q=drone&limit=3&offset=0",
  "total": 47232,
  "next": "https://api.ebay.com/buy/browse/v1/item_summary/search?q=drone&limit=3&offset=3",
  "limit": 3,
  "offset": 0,
  "itemSummaries": [
    {
      "itemId": "v1|195677488838|0",
      "title": "2023 New RC Drone With 4K HD Dual Camera WiFi FPV Foldable Quadcopter +4 Battery",
      "leafCategoryIds": [
        "179697",
        "182185"
      ],
      "categories": [
        {
          "categoryId": "179697",
          "categoryName": "Camera Drones"
        },
        {
          "categoryId": "182185",
          "categoryName": "Quadcopters & Multicopters"
        },
        {
          "categoryId": "2562",
          "categoryName": "Radio Control & Control Line"
        },
        {
          "categoryId": "220",
          "categoryName": "Toys & Hobbies"
        },
        {
          "categoryId": "625",
          "categoryName": "Cameras & Photo"
        },
        {
          "categoryId": "182181",
          "categoryName": "RC Model Vehicles & Kits"
        }
      ],
      "image": {
        "imageUrl": "https://i.ebayimg.com/thumbs/images/g/w~oAAOSw9mVkHj57/s-l225.jpg"
      },
      "price": {
        "value": "33.89",
        "currency": "USD"
      },
      "itemHref": "https://api.ebay.com/buy/browse/v1/item/v1%7C195677488838%7C0",
      "seller": {
        "username": "theperfectpart",
        "feedbackPercentage": "100.0",
        "feedbackScore": 830703
      },
      "condition": "New",
      "conditionId": "1000",
      "thumbnailImages": [
        {
          "imageUrl": "https://i.ebayimg.com/images/g/w~oAAOSw9mVkHj57/s-l1600.jpg"
        }
      ],
      "shippingOptions": [
        {
          "shippingCostType": "FIXED",
          "shippingCost": {
            "value": "0.00",
            "currency": "USD"
          }
        }
      ],
      "buyingOptions": [
        "FIXED_PRICE"
      ],
      "epid": "22059942601",
      "itemAffiliateWebUrl": "https://www.ebay.com/itm/195677488838?hash=item2d8f4986c6%3Ag%3Aw%7EoAAOSw9mVkHj57&amdata=enc%3AAQAIAAAA4ItaWDxSPIrf7XPTp8NCdoVxIIZdvfd42RcGjhApM0Azn4YDZHI6Rw4FPErvHL2439LbsjevwCMlc7LSlHzJ6MAe2yPXe0XQahsfoQ4AiZTPoUbaMZSccN2QM3%2FdW%2Bt3ta7i9syKLJOt2dYZ1Kxxzu3wMBcNTb8bW3k9BPfFKHHepPux5LoJBLF7xY9zjqepYptJMeGQlMyW0%2BdpwwJfj5XuHyGOL9ZJ9%2B0Gkw504szkpLczkEHdBg5kdbqfhVx%2B8GNMbAyzraKmqwUYn5aybFtfei5k1c0aCdX5%2FSnxZjP0&mkevt=1&mkcid=1&mkrid=711-53200-19255-0&campid=%253CePNCampaignId%253E&customid=%253CreferenceId%253E&toolid=10049",
      "itemWebUrl": "https://www.ebay.com/itm/195677488838?hash=item2d8f4986c6:g:w~oAAOSw9mVkHj57&amdata=enc%3AAQAIAAAA4ItaWDxSPIrf7XPTp8NCdoVxIIZdvfd42RcGjhApM0Azn4YDZHI6Rw4FPErvHL2439LbsjevwCMlc7LSlHzJ6MAe2yPXe0XQahsfoQ4AiZTPoUbaMZSccN2QM3%2FdW%2Bt3ta7i9syKLJOt2dYZ1Kxxzu3wMBcNTb8bW3k9BPfFKHHepPux5LoJBLF7xY9zjqepYptJMeGQlMyW0%2BdpwwJfj5XuHyGOL9ZJ9%2B0Gkw504szkpLczkEHdBg5kdbqfhVx%2B8GNMbAyzraKmqwUYn5aybFtfei5k1c0aCdX5%2FSnxZjP0",
      "itemLocation": {
        "postalCode": "916**",
        "country": "US"
      },
      "additionalImages": [
        {
          "imageUrl": "https://i.ebayimg.com/thumbs/images/g/zfAAAOSwtYRkHj6C/s-l225.jpg"
        },
        {
          "imageUrl": "https://i.ebayimg.com/thumbs/images/g/scMAAOSwRllkHj57/s-l225.jpg"
        },
        {
          "imageUrl": "https://i.ebayimg.com/thumbs/images/g/rxoAAOSwd9hkHj6A/s-l225.jpg"
        },
        {
          "imageUrl": "https://i.ebayimg.com/thumbs/images/g/BkYAAOSwG-RkHj6B/s-l225.jpg"
        },
        {
          "imageUrl": "https://i.ebayimg.com/thumbs/images/g/~3wAAOSwZKlkHj6A/s-l225.jpg"
        },
        {
          "imageUrl": "https://i.ebayimg.com/thumbs/images/g/vNwAAOSwRQ1kHj6B/s-l225.jpg"
        },
        {
          "imageUrl": "https://i.ebayimg.com/thumbs/images/g/fvcAAOSwmktkHj6G/s-l225.jpg"
        },
        {
          "imageUrl": "https://i.ebayimg.com/thumbs/images/g/U-sAAOSwFglkHj6K/s-l225.jpg"
        },
        {
          "imageUrl": "https://i.ebayimg.com/thumbs/images/g/qj4AAOSwjJxkHj6I/s-l225.jpg"
        },
        {
          "imageUrl": "https://i.ebayimg.com/thumbs/images/g/s1MAAOSw0AhkHj6A/s-l225.jpg"
        },
        {
          "imageUrl": "https://i.ebayimg.com/thumbs/images/g/BtMAAOSwq9BkHj6C/s-l225.jpg"
        },
        {
          "imageUrl": "https://i.ebayimg.com/thumbs/images/g/0y4AAOSwCYRkHj6C/s-l225.jpg"
        },
        {
          "imageUrl": "https://i.ebayimg.com/thumbs/images/g/cwoAAOSwAC5kHj6K/s-l225.jpg"
        },
        {
          "imageUrl": "https://i.ebayimg.com/thumbs/images/g/bbUAAOSw7kNkHj6H/s-l225.jpg"
        },
        {
          "imageUrl": "https://i.ebayimg.com/thumbs/images/g/tmcAAOSwyk9kHj6J/s-l225.jpg"
        },
        {
          "imageUrl": "https://i.ebayimg.com/thumbs/images/g/WCkAAOSwQZRkHj6D/s-l225.jpg"
        },
        {
          "imageUrl": "https://i.ebayimg.com/thumbs/images/g/Be4AAOSwc-dkHj6C/s-l225.jpg"
        },
        {
          "imageUrl": "https://i.ebayimg.com/thumbs/images/g/29sAAOSwIL1kHj6D/s-l225.jpg"
        },
        {
          "imageUrl": "https://i.ebayimg.com/thumbs/images/g/uFEAAOSwFmlkHj6D/s-l225.jpg"
        },
        {
          "imageUrl": "https://i.ebayimg.com/thumbs/images/g/KE8AAOSwob1kHj6G/s-l225.jpg"
        }
      ],
      "adultOnly": false,
      "legacyItemId": "195677488838",
      "availableCoupons": false,
      "itemCreationDate": "2023-03-25T00:34:20.000Z",
      "topRatedBuyingExperience": false,
      "priorityListing": true,
      "listingMarketplaceId": "EBAY_US"
    },
    {
      "itemId": "v1|404612164265|0",
      "title": "2023 New RC Drone With 4K HD Camera WiFi FPV Foldable Quadcopter + 4 Batteries",
      "leafCategoryIds": [
        "179697",
        "182185"
      ],
      "categories": [
        {
          "categoryId": "179697",
          "categoryName": "Camera Drones"
        },
        {
          "categoryId": "182185",
          "categoryName": "Quadcopters & Multicopters"
        },
        {
          "categoryId": "2562",
          "categoryName": "Radio Control & Control Line"
        },
        {
          "categoryId": "220",
          "categoryName": "Toys & Hobbies"
        },
        {
          "categoryId": "625",
          "categoryName": "Cameras & Photo"
        },
        {
          "categoryId": "182181",
          "categoryName": "RC Model Vehicles & Kits"
        }
      ],
      "image": {
        "imageUrl": "https://i.ebayimg.com/thumbs/images/g/2VkAAOSwYQ1lTQNF/s-l225.jpg"
      },
      "price": {
        "value": "23.99",
        "currency": "USD"
      },
      "itemHref": "https://api.ebay.com/buy/browse/v1/item/v1%7C404612164265%7C0",
      "seller": {
        "username": "gameinfinity",
        "feedbackPercentage": "99.1",
        "feedbackScore": 339226
      },
      "condition": "New",
      "conditionId": "1000",
      "thumbnailImages": [
        {
          "imageUrl": "https://i.ebayimg.com/images/g/2VkAAOSwYQ1lTQNF/s-l1600.jpg"
        }
      ],
      "shippingOptions": [
        {
          "shippingCostType": "FIXED",
          "shippingCost": {
            "value": "0.00",
            "currency": "USD"
          }
        }
      ],
      "buyingOptions": [
        "FIXED_PRICE"
      ],
      "itemAffiliateWebUrl": "https://www.ebay.com/itm/404612164265?hash=item5e34c3aaa9%3Ag%3A2VkAAOSwYQ1lTQNF&amdata=enc%3AAQAIAAAA0CJ8QBMr0Z4rVDgdzSNTODryul5NAVkRUhgDkl4O1zLN%2B3BXXliNHR5hE%2BIzO%2FrpEJfJEl7G6phCwe47FRnC9PYuudGJYN9jf2Za9nUYmuFjDlsCaYm2PgTfPKVHHzQ3j4U56vVey%2BwJc6JN2adntHADaZtSjxA8bLc%2BkNTOdA3M0HMuO8nMO%2BZekYQZEvS%2Fcg3ezf%2BL6tdLnYNgMHOhtVvvFuiW5HMQdmSFEnB4ZNAI9NFD37uS75RygWvXVmCHENzu0R4cMEX4hgF4TlBZmI8%3D&mkevt=1&mkcid=1&mkrid=711-53200-19255-0&campid=%253CePNCampaignId%253E&customid=%253CreferenceId%253E&toolid=10049",
      "itemWebUrl": "https://www.ebay.com/itm/404612164265?hash=item5e34c3aaa9:g:2VkAAOSwYQ1lTQNF&amdata=enc%3AAQAIAAAA0CJ8QBMr0Z4rVDgdzSNTODryul5NAVkRUhgDkl4O1zLN%2B3BXXliNHR5hE%2BIzO%2FrpEJfJEl7G6phCwe47FRnC9PYuudGJYN9jf2Za9nUYmuFjDlsCaYm2PgTfPKVHHzQ3j4U56vVey%2BwJc6JN2adntHADaZtSjxA8bLc%2BkNTOdA3M0HMuO8nMO%2BZekYQZEvS%2Fcg3ezf%2BL6tdLnYNgMHOhtVvvFuiW5HMQdmSFEnB4ZNAI9NFD37uS75RygWvXVmCHENzu0R4cMEX4hgF4TlBZmI8%3D",
      "itemLocation": {
        "postalCode": "070**",
        "country": "US"
      },
      "additionalImages": [
        {
          "imageUrl": "https://i.ebayimg.com/thumbs/images/g/dSwAAOSwti9lTQNF/s-l225.jpg"
        },
        {
          "imageUrl": "https://i.ebayimg.com/thumbs/images/g/~cYAAOSwxIxlTQND/s-l225.jpg"
        },
        {
          "imageUrl": "https://i.ebayimg.com/thumbs/images/g/9EoAAOSw9s5lTQNF/s-l225.jpg"
        },
        {
          "imageUrl": "https://i.ebayimg.com/thumbs/images/g/xb0AAOSwxNllTQNE/s-l225.jpg"
        },
        {
          "imageUrl": "https://i.ebayimg.com/thumbs/images/g/D2EAAOSwKvxlTQNE/s-l225.jpg"
        }
      ],
      "adultOnly": false,
      "legacyItemId": "404612164265",
      "availableCoupons": false,
      "itemCreationDate": "2023-11-09T16:34:37.000Z",
      "topRatedBuyingExperience": true,
      "priorityListing": true,
      "listingMarketplaceId": "EBAY_US"
    },
    {
      "itemId": "v1|196043606431|0",
      "title": "Holy Stone HS360S SPYDI GPS Drone with 4K UHD Camera for Adults Beginner;  249g",
      "leafCategoryIds": [
        "179697"
      ],
      "categories": [
        {
          "categoryId": "179697",
          "categoryName": "Camera Drones"
        },
        {
          "categoryId": "625",
          "categoryName": "Cameras & Photo"
        }
      ],
      "image": {
        "imageUrl": "https://i.ebayimg.com/thumbs/images/g/IwEAAOSw-4plNIkw/s-l225.jpg"
      },
      "price": {
        "value": "179.00",
        "currency": "USD"
      },
      "itemHref": "https://api.ebay.com/buy/browse/v1/item/v1%7C196043606431%7C0",
      "seller": {
        "username": "americ758583",
        "feedbackPercentage": "95.7",
        "feedbackScore": 44
      },
      "condition": "New",
      "conditionId": "1000",
      "thumbnailImages": [
        {
          "imageUrl": "https://i.ebayimg.com/images/g/IwEAAOSw-4plNIkw/s-l1200.jpg"
        }
      ],
      "shippingOptions": [
        {
          "shippingCostType": "FIXED",
          "shippingCost": {
            "value": "0.00",
            "currency": "USD"
          }
        }
      ],
      "buyingOptions": [
        "FIXED_PRICE",
        "BEST_OFFER"
      ],
      "epid": "23062247574",
      "itemAffiliateWebUrl": "https://www.ebay.com/itm/196043606431?hash=item2da51c099f%3Ag%3AIwEAAOSw-4plNIkw&amdata=enc%3AAQAIAAAA4DwABqPF8ELGBJBbogwCzuwGBuXRjvS77FaD5UJPQO%2B6Az08GFD50iB3s94K5%2FxI7hpwRMjS4yDRO0xOJ35%2FxwGZQ%2B%2F97NjiHtJXhHdiWcE29rq6%2B8jWn4hWRjDopPlJc4y6Vi6I6dbnpJxbhkhqLhynuXx5baR0TOwIdisB8VS1gUfMccGyAqT4ELAe2oPu8Hzqzh48OhYuiVQrkV1hXnOR%2F6Yd3ehhciWtP8IIpPEM0i%2BG%2BxC1%2Fw5xe52V195vu%2B3rcW0il6oIcpDtPdVX55%2BwVOJAgB50kl1kn%2BZnchx7&mkevt=1&mkcid=1&mkrid=711-53200-19255-0&campid=%253CePNCampaignId%253E&customid=%253CreferenceId%253E&toolid=10049",
      "itemWebUrl": "https://www.ebay.com/itm/196043606431?hash=item2da51c099f:g:IwEAAOSw-4plNIkw&amdata=enc%3AAQAIAAAA4DwABqPF8ELGBJBbogwCzuwGBuXRjvS77FaD5UJPQO%2B6Az08GFD50iB3s94K5%2FxI7hpwRMjS4yDRO0xOJ35%2FxwGZQ%2B%2F97NjiHtJXhHdiWcE29rq6%2B8jWn4hWRjDopPlJc4y6Vi6I6dbnpJxbhkhqLhynuXx5baR0TOwIdisB8VS1gUfMccGyAqT4ELAe2oPu8Hzqzh48OhYuiVQrkV1hXnOR%2F6Yd3ehhciWtP8IIpPEM0i%2BG%2BxC1%2Fw5xe52V195vu%2B3rcW0il6oIcpDtPdVX55%2BwVOJAgB50kl1kn%2BZnchx7",
      "itemLocation": {
        "postalCode": "917**",
        "country": "US"
      },
      "additionalImages": [
        {
          "imageUrl": "https://i.ebayimg.com/thumbs/images/g/JsUAAOSwOiJlNIkz/s-l225.jpg"
        },
        {
          "imageUrl": "https://i.ebayimg.com/thumbs/images/g/qdQAAOSw6KVlNIk1/s-l225.jpg"
        },
        {
          "imageUrl": "https://i.ebayimg.com/thumbs/images/g/nNAAAOSwEoRlNIk4/s-l225.jpg"
        },
        {
          "imageUrl": "https://i.ebayimg.com/thumbs/images/g/OvcAAOSwjX1lNIk6/s-l225.jpg"
        },
        {
          "imageUrl": "https://i.ebayimg.com/thumbs/images/g/0v4AAOSwnMhlNIk8/s-l225.jpg"
        },
        {
          "imageUrl": "https://i.ebayimg.com/thumbs/images/g/2U4AAOSwzFllNIk~/s-l225.jpg"
        },
        {
          "imageUrl": "https://i.ebayimg.com/thumbs/images/g/KoIAAOSwA1FlNIlB/s-l225.jpg"
        },
        {
          "imageUrl": "https://i.ebayimg.com/thumbs/images/g/SI8AAOSwDQdlNIlE/s-l225.jpg"
        }
      ],
      "adultOnly": false,
      "legacyItemId": "196043606431",
      "availableCoupons": false,
      "itemCreationDate": "2023-10-22T03:02:05.000Z",
      "topRatedBuyingExperience": false,
      "priorityListing": true,
      "listingMarketplaceId": "EBAY_US"
    }
  ]
}